%
M48
M72
T01C0.02362
T02C0.04000
T03C0.04700
%
T01
X21485Y29359
X35265Y49044
X45107Y41170
X60855Y39202
X56918Y82509
X41170Y88414
X21485Y56918
X80540Y127784
X86446Y119910
X68729Y143532
X76603Y145501
X76603Y155343
X84477Y159280
X100225Y165186
X115973Y190776
X123847Y188808
X127784Y178965
X123847Y148454
X112036Y115973
X60855Y155343
X52981Y149438
X41170Y135658
T02
X138532Y133099
X138532Y123099
X138532Y113099
X138532Y103099
X138532Y93099
X138532Y83099
X138532Y73099
X138532Y63099
X138532Y53099
X138532Y43099
X138532Y33099
X138532Y23099
X138532Y13099
X148532Y13099
X148532Y23099
X148532Y33099
X148532Y43099
X148532Y53099
X148532Y63099
X148532Y73099
X148532Y83099
X148532Y93099
X148532Y103099
X148532Y113099
X148532Y123099
X148532Y133099
X148532Y143099
X148532Y153099
X148532Y163099
X148532Y173099
X148532Y183099
X148532Y193099
X148532Y203099
X138532Y203099
X138532Y193099
X138532Y183099
X138532Y173099
X138532Y163099
X138532Y153099
X138532Y143099
T03
X100225Y187745
X80540Y187745
X58887Y187666
X39202Y187666
X19517Y187666
X28532Y151406
X28532Y131721
X28532Y112036
M30
