G75*
%MOIN*%
%OFA0B0*%
%FSLAX25Y25*%
%IPPOS*%
%LPD*%
%AMOC8*
5,1,8,0,0,1.08239X$1,22.5*
%
%ADD10OC8,0.06000*%
%ADD11C,0.07050*%
%ADD12C,0.03962*%
%ADD13C,0.01600*%
D10*
X0138532Y0013099D03*
X0138532Y0023099D03*
X0138532Y0033099D03*
X0138532Y0043099D03*
X0138532Y0053099D03*
X0138532Y0063099D03*
X0138532Y0073099D03*
X0138532Y0083099D03*
X0138532Y0093099D03*
X0138532Y0103099D03*
X0138532Y0113099D03*
X0138532Y0123099D03*
X0138532Y0133099D03*
X0138532Y0143099D03*
X0138532Y0153099D03*
X0138532Y0163099D03*
X0138532Y0173099D03*
X0138532Y0183099D03*
X0138532Y0193099D03*
X0138532Y0203099D03*
X0148532Y0203099D03*
X0148532Y0193099D03*
X0148532Y0183099D03*
X0148532Y0173099D03*
X0148532Y0163099D03*
X0148532Y0153099D03*
X0148532Y0143099D03*
X0148532Y0133099D03*
X0148532Y0123099D03*
X0148532Y0113099D03*
X0148532Y0103099D03*
X0148532Y0093099D03*
X0148532Y0083099D03*
X0148532Y0073099D03*
X0148532Y0063099D03*
X0148532Y0053099D03*
X0148532Y0043099D03*
X0148532Y0033099D03*
X0148532Y0023099D03*
X0148532Y0013099D03*
D11*
X0032057Y0112036D02*
X0025007Y0112036D01*
X0025007Y0131721D02*
X0032057Y0131721D01*
X0032057Y0151406D02*
X0025007Y0151406D01*
X0019517Y0184141D02*
X0019517Y0191191D01*
X0039202Y0191191D02*
X0039202Y0184141D01*
X0058887Y0184141D02*
X0058887Y0191191D01*
X0080540Y0191270D02*
X0080540Y0184220D01*
X0100225Y0184220D02*
X0100225Y0191270D01*
D12*
X0115973Y0190776D03*
X0123847Y0188808D03*
X0127784Y0178965D03*
X0123847Y0148454D03*
X0100225Y0165186D03*
X0084477Y0159280D03*
X0076603Y0155343D03*
X0076603Y0145501D03*
X0068729Y0143532D03*
X0060855Y0155343D03*
X0052981Y0149438D03*
X0041170Y0135658D03*
X0080540Y0127784D03*
X0086446Y0119910D03*
X0112036Y0115973D03*
X0056918Y0082509D03*
X0041170Y0088414D03*
X0021485Y0056918D03*
X0035265Y0049044D03*
X0045107Y0041170D03*
X0060855Y0039202D03*
X0021485Y0029359D03*
D13*
X0010537Y0006600D02*
X0010537Y0209598D01*
X0174165Y0209598D01*
X0174165Y0006600D01*
X0010537Y0006600D01*
X0010537Y0007336D02*
X0174165Y0007336D01*
X0174165Y0008934D02*
X0150872Y0008934D01*
X0150438Y0008499D02*
X0153132Y0011194D01*
X0153132Y0015005D01*
X0150438Y0017699D01*
X0146627Y0017699D01*
X0143932Y0015005D01*
X0143932Y0011194D01*
X0146627Y0008499D01*
X0150438Y0008499D01*
X0152471Y0010533D02*
X0174165Y0010533D01*
X0174165Y0012131D02*
X0153132Y0012131D01*
X0153132Y0013730D02*
X0174165Y0013730D01*
X0174165Y0015328D02*
X0152809Y0015328D01*
X0151210Y0016927D02*
X0174165Y0016927D01*
X0174165Y0018525D02*
X0150464Y0018525D01*
X0150438Y0018499D02*
X0153132Y0021194D01*
X0153132Y0025005D01*
X0150438Y0027699D01*
X0146627Y0027699D01*
X0143932Y0025005D01*
X0143932Y0021194D01*
X0146627Y0018499D01*
X0150438Y0018499D01*
X0152062Y0020124D02*
X0174165Y0020124D01*
X0174165Y0021722D02*
X0153132Y0021722D01*
X0153132Y0023321D02*
X0174165Y0023321D01*
X0174165Y0024919D02*
X0153132Y0024919D01*
X0151619Y0026518D02*
X0174165Y0026518D01*
X0174165Y0028116D02*
X0024846Y0028116D01*
X0025066Y0028647D02*
X0025066Y0029546D01*
X0026416Y0030896D01*
X0033773Y0030896D01*
X0034656Y0031261D01*
X0035331Y0031937D01*
X0042164Y0038770D01*
X0042443Y0038770D01*
X0043079Y0038134D01*
X0044395Y0037589D01*
X0045819Y0037589D01*
X0047136Y0038134D01*
X0048143Y0039142D01*
X0048688Y0040458D01*
X0048688Y0041882D01*
X0048143Y0043199D01*
X0047136Y0044206D01*
X0045819Y0044751D01*
X0044395Y0044751D01*
X0043079Y0044206D01*
X0042443Y0043570D01*
X0040693Y0043570D01*
X0039811Y0043205D01*
X0032302Y0035696D01*
X0024945Y0035696D01*
X0024063Y0035331D01*
X0021672Y0032940D01*
X0020773Y0032940D01*
X0019457Y0032395D01*
X0018449Y0031388D01*
X0017904Y0030071D01*
X0017904Y0028647D01*
X0018449Y0027331D01*
X0019457Y0026323D01*
X0020773Y0025778D01*
X0022197Y0025778D01*
X0023514Y0026323D01*
X0024521Y0027331D01*
X0025066Y0028647D01*
X0025235Y0029715D02*
X0135411Y0029715D01*
X0136627Y0028499D02*
X0133932Y0031194D01*
X0133932Y0035005D01*
X0136627Y0037699D01*
X0140438Y0037699D01*
X0143132Y0035005D01*
X0143132Y0031194D01*
X0140438Y0028499D01*
X0136627Y0028499D01*
X0136627Y0027699D02*
X0133932Y0025005D01*
X0133932Y0021194D01*
X0136627Y0018499D01*
X0140438Y0018499D01*
X0143132Y0021194D01*
X0143132Y0025005D01*
X0140438Y0027699D01*
X0136627Y0027699D01*
X0135445Y0026518D02*
X0023708Y0026518D01*
X0021485Y0029359D02*
X0025422Y0033296D01*
X0033296Y0033296D01*
X0041170Y0041170D01*
X0045107Y0041170D01*
X0042974Y0044101D02*
X0010537Y0044101D01*
X0010537Y0042503D02*
X0039109Y0042503D01*
X0037510Y0040904D02*
X0010537Y0040904D01*
X0010537Y0039306D02*
X0035912Y0039306D01*
X0034313Y0037707D02*
X0010537Y0037707D01*
X0010537Y0036109D02*
X0032715Y0036109D01*
X0036306Y0032912D02*
X0133932Y0032912D01*
X0133932Y0034510D02*
X0037904Y0034510D01*
X0039503Y0036109D02*
X0058964Y0036109D01*
X0058827Y0036166D02*
X0060143Y0035620D01*
X0061567Y0035620D01*
X0062884Y0036166D01*
X0063891Y0037173D01*
X0064436Y0038489D01*
X0064436Y0039914D01*
X0063891Y0041230D01*
X0063255Y0041866D01*
X0063255Y0079049D01*
X0062890Y0079931D01*
X0062712Y0080109D01*
X0067238Y0080109D01*
X0068120Y0080474D01*
X0081900Y0094254D01*
X0082575Y0094929D01*
X0082940Y0095811D01*
X0082940Y0119015D01*
X0083410Y0117882D01*
X0084417Y0116874D01*
X0085733Y0116329D01*
X0087158Y0116329D01*
X0088474Y0116874D01*
X0089482Y0117882D01*
X0090027Y0119198D01*
X0090027Y0120623D01*
X0089482Y0121939D01*
X0088846Y0122575D01*
X0088846Y0150412D01*
X0091377Y0152943D01*
X0104640Y0152943D01*
X0105522Y0153309D01*
X0106197Y0153984D01*
X0110134Y0157921D01*
X0110499Y0158803D01*
X0110499Y0170097D01*
X0125882Y0185480D01*
X0126093Y0185989D01*
X0126883Y0186779D01*
X0127428Y0188096D01*
X0127428Y0189520D01*
X0126883Y0190836D01*
X0125876Y0191844D01*
X0124560Y0192389D01*
X0123135Y0192389D01*
X0121819Y0191844D01*
X0120811Y0190836D01*
X0120266Y0189520D01*
X0120266Y0188096D01*
X0120689Y0187075D01*
X0106740Y0173126D01*
X0106065Y0172451D01*
X0105699Y0171569D01*
X0105699Y0160274D01*
X0103168Y0157743D01*
X0089905Y0157743D01*
X0089023Y0157378D01*
X0085086Y0153441D01*
X0084411Y0152766D01*
X0084046Y0151884D01*
X0084046Y0128679D01*
X0083576Y0129813D01*
X0082569Y0130820D01*
X0081252Y0131365D01*
X0079828Y0131365D01*
X0078512Y0130820D01*
X0077504Y0129813D01*
X0076959Y0128497D01*
X0076959Y0127072D01*
X0077504Y0125756D01*
X0078140Y0125120D01*
X0078140Y0097282D01*
X0065767Y0084909D01*
X0059583Y0084909D01*
X0058947Y0085545D01*
X0057630Y0086090D01*
X0056206Y0086090D01*
X0054890Y0085545D01*
X0053882Y0084537D01*
X0053337Y0083221D01*
X0053337Y0081796D01*
X0053882Y0080480D01*
X0054890Y0079473D01*
X0056206Y0078928D01*
X0057105Y0078928D01*
X0058455Y0077578D01*
X0058455Y0041866D01*
X0057819Y0041230D01*
X0057274Y0039914D01*
X0057274Y0038489D01*
X0057819Y0037173D01*
X0058827Y0036166D01*
X0057598Y0037707D02*
X0046105Y0037707D01*
X0044109Y0037707D02*
X0041101Y0037707D01*
X0034707Y0031313D02*
X0133932Y0031313D01*
X0135036Y0036109D02*
X0062746Y0036109D01*
X0064112Y0037707D02*
X0174165Y0037707D01*
X0174165Y0036109D02*
X0152028Y0036109D01*
X0153132Y0035005D02*
X0150438Y0037699D01*
X0146627Y0037699D01*
X0143932Y0035005D01*
X0143932Y0031194D01*
X0146627Y0028499D01*
X0150438Y0028499D01*
X0153132Y0031194D01*
X0153132Y0035005D01*
X0153132Y0034510D02*
X0174165Y0034510D01*
X0174165Y0032912D02*
X0153132Y0032912D01*
X0153132Y0031313D02*
X0174165Y0031313D01*
X0174165Y0029715D02*
X0151653Y0029715D01*
X0145411Y0029715D02*
X0141653Y0029715D01*
X0143132Y0031313D02*
X0143932Y0031313D01*
X0143932Y0032912D02*
X0143132Y0032912D01*
X0143132Y0034510D02*
X0143932Y0034510D01*
X0145036Y0036109D02*
X0142028Y0036109D01*
X0140438Y0038499D02*
X0143132Y0041194D01*
X0143132Y0045005D01*
X0140438Y0047699D01*
X0136627Y0047699D01*
X0133932Y0045005D01*
X0133932Y0041194D01*
X0136627Y0038499D01*
X0140438Y0038499D01*
X0141244Y0039306D02*
X0145538Y0039306D01*
X0146544Y0038299D02*
X0143732Y0041111D01*
X0143732Y0042899D01*
X0148332Y0042899D01*
X0148332Y0043299D01*
X0143732Y0043299D01*
X0143732Y0045087D01*
X0146544Y0047899D01*
X0148332Y0047899D01*
X0148332Y0043299D01*
X0148732Y0043299D01*
X0148732Y0047899D01*
X0150520Y0047899D01*
X0153332Y0045087D01*
X0153332Y0043299D01*
X0148732Y0043299D01*
X0148732Y0042899D01*
X0148732Y0038299D01*
X0150520Y0038299D01*
X0153332Y0041111D01*
X0153332Y0042899D01*
X0148732Y0042899D01*
X0148332Y0042899D01*
X0148332Y0038299D01*
X0146544Y0038299D01*
X0148332Y0039306D02*
X0148732Y0039306D01*
X0148732Y0040904D02*
X0148332Y0040904D01*
X0148332Y0042503D02*
X0148732Y0042503D01*
X0148732Y0044101D02*
X0148332Y0044101D01*
X0148332Y0045700D02*
X0148732Y0045700D01*
X0148732Y0047298D02*
X0148332Y0047298D01*
X0146627Y0048499D02*
X0150438Y0048499D01*
X0153132Y0051194D01*
X0153132Y0055005D01*
X0150438Y0057699D01*
X0146627Y0057699D01*
X0143932Y0055005D01*
X0143932Y0051194D01*
X0146627Y0048499D01*
X0146229Y0048897D02*
X0140835Y0048897D01*
X0140438Y0048499D02*
X0143132Y0051194D01*
X0143132Y0055005D01*
X0140438Y0057699D01*
X0136627Y0057699D01*
X0133932Y0055005D01*
X0133932Y0051194D01*
X0136627Y0048499D01*
X0140438Y0048499D01*
X0140839Y0047298D02*
X0145943Y0047298D01*
X0144345Y0045700D02*
X0142437Y0045700D01*
X0143132Y0044101D02*
X0143732Y0044101D01*
X0143732Y0042503D02*
X0143132Y0042503D01*
X0142843Y0040904D02*
X0143939Y0040904D01*
X0151527Y0039306D02*
X0174165Y0039306D01*
X0174165Y0040904D02*
X0153126Y0040904D01*
X0153332Y0042503D02*
X0174165Y0042503D01*
X0174165Y0044101D02*
X0153332Y0044101D01*
X0152720Y0045700D02*
X0174165Y0045700D01*
X0174165Y0047298D02*
X0151121Y0047298D01*
X0150835Y0048897D02*
X0174165Y0048897D01*
X0174165Y0050495D02*
X0152434Y0050495D01*
X0153132Y0052094D02*
X0174165Y0052094D01*
X0174165Y0053692D02*
X0153132Y0053692D01*
X0152846Y0055291D02*
X0174165Y0055291D01*
X0174165Y0056889D02*
X0151247Y0056889D01*
X0150520Y0058299D02*
X0153332Y0061111D01*
X0153332Y0062899D01*
X0148732Y0062899D01*
X0148732Y0058299D01*
X0150520Y0058299D01*
X0150709Y0058488D02*
X0174165Y0058488D01*
X0174165Y0060086D02*
X0152308Y0060086D01*
X0153332Y0061685D02*
X0174165Y0061685D01*
X0174165Y0063283D02*
X0148732Y0063283D01*
X0148732Y0063299D02*
X0153332Y0063299D01*
X0153332Y0065087D01*
X0150520Y0067899D01*
X0148732Y0067899D01*
X0148732Y0063299D01*
X0148332Y0063299D01*
X0148332Y0062899D01*
X0143732Y0062899D01*
X0143732Y0061111D01*
X0146544Y0058299D01*
X0148332Y0058299D01*
X0148332Y0062899D01*
X0148732Y0062899D01*
X0148732Y0063299D01*
X0148332Y0063299D02*
X0148332Y0067899D01*
X0146544Y0067899D01*
X0143732Y0065087D01*
X0143732Y0063299D01*
X0148332Y0063299D01*
X0148332Y0063283D02*
X0143132Y0063283D01*
X0143132Y0061685D02*
X0143732Y0061685D01*
X0143132Y0061194D02*
X0140438Y0058499D01*
X0136627Y0058499D01*
X0133932Y0061194D01*
X0133932Y0065005D01*
X0136627Y0067699D01*
X0140438Y0067699D01*
X0143132Y0065005D01*
X0143132Y0061194D01*
X0142025Y0060086D02*
X0144757Y0060086D01*
X0146355Y0058488D02*
X0063255Y0058488D01*
X0063255Y0060086D02*
X0135040Y0060086D01*
X0133932Y0061685D02*
X0063255Y0061685D01*
X0063255Y0063283D02*
X0133932Y0063283D01*
X0133932Y0064882D02*
X0063255Y0064882D01*
X0063255Y0066480D02*
X0135408Y0066480D01*
X0136627Y0068499D02*
X0140438Y0068499D01*
X0143132Y0071194D01*
X0143132Y0075005D01*
X0140438Y0077699D01*
X0136627Y0077699D01*
X0133932Y0075005D01*
X0133932Y0071194D01*
X0136627Y0068499D01*
X0135449Y0069677D02*
X0063255Y0069677D01*
X0063255Y0068079D02*
X0174165Y0068079D01*
X0174165Y0069677D02*
X0151616Y0069677D01*
X0150438Y0068499D02*
X0153132Y0071194D01*
X0153132Y0075005D01*
X0150438Y0077699D01*
X0146627Y0077699D01*
X0143932Y0075005D01*
X0143932Y0071194D01*
X0146627Y0068499D01*
X0150438Y0068499D01*
X0151939Y0066480D02*
X0174165Y0066480D01*
X0174165Y0064882D02*
X0153332Y0064882D01*
X0148732Y0064882D02*
X0148332Y0064882D01*
X0148332Y0066480D02*
X0148732Y0066480D01*
X0145125Y0066480D02*
X0141656Y0066480D01*
X0143132Y0064882D02*
X0143732Y0064882D01*
X0145449Y0069677D02*
X0141616Y0069677D01*
X0143132Y0071276D02*
X0143932Y0071276D01*
X0143932Y0072874D02*
X0143132Y0072874D01*
X0143132Y0074473D02*
X0143932Y0074473D01*
X0144999Y0076072D02*
X0142065Y0076072D01*
X0140467Y0077670D02*
X0146598Y0077670D01*
X0146627Y0078499D02*
X0150438Y0078499D01*
X0153132Y0081194D01*
X0153132Y0085005D01*
X0150438Y0087699D01*
X0146627Y0087699D01*
X0143932Y0085005D01*
X0143932Y0081194D01*
X0146627Y0078499D01*
X0145858Y0079269D02*
X0141490Y0079269D01*
X0140520Y0078299D02*
X0143332Y0081111D01*
X0143332Y0082899D01*
X0138732Y0082899D01*
X0138732Y0078299D01*
X0140520Y0078299D01*
X0138732Y0079269D02*
X0138332Y0079269D01*
X0138332Y0078299D02*
X0138332Y0082899D01*
X0133732Y0082899D01*
X0133732Y0081111D01*
X0136544Y0078299D01*
X0138332Y0078299D01*
X0136598Y0077670D02*
X0063255Y0077670D01*
X0063255Y0076072D02*
X0134999Y0076072D01*
X0133932Y0074473D02*
X0063255Y0074473D01*
X0063255Y0072874D02*
X0133932Y0072874D01*
X0133932Y0071276D02*
X0063255Y0071276D01*
X0058455Y0071276D02*
X0051444Y0071276D01*
X0051444Y0072874D02*
X0058455Y0072874D01*
X0058455Y0074473D02*
X0051444Y0074473D01*
X0051444Y0076072D02*
X0058455Y0076072D01*
X0058363Y0077670D02*
X0051444Y0077670D01*
X0051444Y0079269D02*
X0055383Y0079269D01*
X0053722Y0080867D02*
X0051444Y0080867D01*
X0051444Y0082466D02*
X0053337Y0082466D01*
X0053686Y0084064D02*
X0051444Y0084064D01*
X0051444Y0085663D02*
X0055174Y0085663D01*
X0056918Y0082509D02*
X0066761Y0082509D01*
X0080540Y0096288D01*
X0080540Y0127784D01*
X0078112Y0130421D02*
X0055381Y0130421D01*
X0055381Y0132019D02*
X0084046Y0132019D01*
X0084046Y0130421D02*
X0082968Y0130421D01*
X0083986Y0128822D02*
X0084046Y0128822D01*
X0084046Y0133618D02*
X0055381Y0133618D01*
X0055381Y0135216D02*
X0084046Y0135216D01*
X0084046Y0136815D02*
X0055381Y0136815D01*
X0055381Y0138413D02*
X0084046Y0138413D01*
X0084046Y0140012D02*
X0069588Y0140012D01*
X0069441Y0139951D02*
X0070758Y0140496D01*
X0071765Y0141504D01*
X0072310Y0142820D01*
X0072310Y0144245D01*
X0071765Y0145561D01*
X0070758Y0146568D01*
X0069624Y0147038D01*
X0071672Y0147038D01*
X0073022Y0145688D01*
X0073022Y0144788D01*
X0073567Y0143472D01*
X0074575Y0142465D01*
X0075891Y0141920D01*
X0077315Y0141920D01*
X0078632Y0142465D01*
X0079639Y0143472D01*
X0080184Y0144788D01*
X0080184Y0146213D01*
X0079639Y0147529D01*
X0078632Y0148537D01*
X0077315Y0149082D01*
X0076416Y0149082D01*
X0074026Y0151472D01*
X0073144Y0151838D01*
X0061750Y0151838D01*
X0062884Y0152307D01*
X0063520Y0152943D01*
X0073939Y0152943D01*
X0074575Y0152307D01*
X0075891Y0151762D01*
X0077315Y0151762D01*
X0078632Y0152307D01*
X0079639Y0153315D01*
X0080184Y0154631D01*
X0080184Y0156056D01*
X0079639Y0157372D01*
X0078632Y0158379D01*
X0077315Y0158924D01*
X0075891Y0158924D01*
X0074575Y0158379D01*
X0073939Y0157743D01*
X0063520Y0157743D01*
X0062884Y0158379D01*
X0061567Y0158924D01*
X0060143Y0158924D01*
X0058827Y0158379D01*
X0057819Y0157372D01*
X0057274Y0156056D01*
X0057274Y0154631D01*
X0057819Y0153315D01*
X0058827Y0152307D01*
X0059960Y0151838D01*
X0055646Y0151838D01*
X0055010Y0152474D01*
X0053693Y0153019D01*
X0052269Y0153019D01*
X0050953Y0152474D01*
X0049945Y0151466D01*
X0049400Y0150150D01*
X0049400Y0148725D01*
X0049945Y0147409D01*
X0050953Y0146402D01*
X0052269Y0145857D01*
X0053693Y0145857D01*
X0055010Y0146402D01*
X0055646Y0147038D01*
X0067834Y0147038D01*
X0066701Y0146568D01*
X0066065Y0145932D01*
X0056441Y0145932D01*
X0055559Y0145567D01*
X0054883Y0144892D01*
X0050946Y0140955D01*
X0050581Y0140073D01*
X0050581Y0101219D01*
X0047009Y0097648D01*
X0046644Y0096766D01*
X0046644Y0069723D01*
X0033230Y0056309D01*
X0032865Y0055427D01*
X0032865Y0051709D01*
X0032229Y0051073D01*
X0031683Y0049756D01*
X0031683Y0048332D01*
X0032229Y0047016D01*
X0033236Y0046008D01*
X0034552Y0045463D01*
X0035977Y0045463D01*
X0037293Y0046008D01*
X0038300Y0047016D01*
X0038846Y0048332D01*
X0038846Y0049756D01*
X0038300Y0051073D01*
X0037665Y0051709D01*
X0037665Y0053955D01*
X0050404Y0066695D01*
X0051079Y0067370D01*
X0051444Y0068252D01*
X0051444Y0095294D01*
X0054341Y0098191D01*
X0055016Y0098866D01*
X0055381Y0099748D01*
X0055381Y0138601D01*
X0057912Y0141132D01*
X0066065Y0141132D01*
X0066701Y0140496D01*
X0068017Y0139951D01*
X0069441Y0139951D01*
X0067870Y0140012D02*
X0056792Y0140012D01*
X0056918Y0143532D02*
X0068729Y0143532D01*
X0072077Y0144807D02*
X0073022Y0144807D01*
X0072310Y0143209D02*
X0073831Y0143209D01*
X0071809Y0141610D02*
X0084046Y0141610D01*
X0084046Y0143209D02*
X0079376Y0143209D01*
X0080184Y0144807D02*
X0084046Y0144807D01*
X0084046Y0146406D02*
X0080104Y0146406D01*
X0079164Y0148005D02*
X0084046Y0148005D01*
X0084046Y0149603D02*
X0075895Y0149603D01*
X0074296Y0151202D02*
X0084046Y0151202D01*
X0084445Y0152800D02*
X0079124Y0152800D01*
X0080088Y0154399D02*
X0086044Y0154399D01*
X0085189Y0155699D02*
X0083765Y0155699D01*
X0082449Y0156244D01*
X0081441Y0157252D01*
X0080896Y0158568D01*
X0080896Y0159467D01*
X0075609Y0164754D01*
X0024945Y0164754D01*
X0024063Y0165120D01*
X0018157Y0171025D01*
X0018157Y0171025D01*
X0017482Y0171700D01*
X0017117Y0172582D01*
X0017117Y0179588D01*
X0016613Y0179796D01*
X0015172Y0181238D01*
X0014392Y0183122D01*
X0014392Y0192211D01*
X0015172Y0194094D01*
X0016613Y0195536D01*
X0018497Y0196316D01*
X0020536Y0196316D01*
X0022420Y0195536D01*
X0023861Y0194094D01*
X0024642Y0192211D01*
X0024642Y0183122D01*
X0023861Y0181238D01*
X0022420Y0179796D01*
X0021917Y0179588D01*
X0021917Y0174054D01*
X0026416Y0169554D01*
X0077081Y0169554D01*
X0077963Y0169189D01*
X0078638Y0168514D01*
X0078638Y0168514D01*
X0084290Y0162861D01*
X0085189Y0162861D01*
X0086506Y0162316D01*
X0087513Y0161309D01*
X0088058Y0159993D01*
X0088058Y0158568D01*
X0087513Y0157252D01*
X0086506Y0156244D01*
X0085189Y0155699D01*
X0085909Y0155997D02*
X0087642Y0155997D01*
X0087655Y0157596D02*
X0089549Y0157596D01*
X0088058Y0159194D02*
X0104619Y0159194D01*
X0105699Y0160793D02*
X0087727Y0160793D01*
X0086325Y0162391D02*
X0097955Y0162391D01*
X0098197Y0162150D02*
X0099513Y0161605D01*
X0100938Y0161605D01*
X0102254Y0162150D01*
X0103261Y0163157D01*
X0103806Y0164473D01*
X0103806Y0165898D01*
X0103261Y0167214D01*
X0102625Y0167850D01*
X0102625Y0170097D01*
X0118008Y0185480D01*
X0118373Y0186362D01*
X0118373Y0188112D01*
X0119009Y0188748D01*
X0119554Y0190064D01*
X0119554Y0191489D01*
X0119009Y0192805D01*
X0118002Y0193812D01*
X0116686Y0194357D01*
X0115261Y0194357D01*
X0113945Y0193812D01*
X0112937Y0192805D01*
X0112392Y0191489D01*
X0112392Y0190064D01*
X0112937Y0188748D01*
X0113573Y0188112D01*
X0113573Y0187833D01*
X0098866Y0173126D01*
X0098866Y0173126D01*
X0098191Y0172451D01*
X0097825Y0171569D01*
X0097825Y0167850D01*
X0097189Y0167214D01*
X0096644Y0165898D01*
X0096644Y0164473D01*
X0097189Y0163157D01*
X0098197Y0162150D01*
X0096845Y0163990D02*
X0083162Y0163990D01*
X0081563Y0165588D02*
X0096644Y0165588D01*
X0097178Y0167187D02*
X0079965Y0167187D01*
X0078366Y0168785D02*
X0097825Y0168785D01*
X0097825Y0170384D02*
X0025587Y0170384D01*
X0023988Y0171982D02*
X0097996Y0171982D01*
X0099320Y0173581D02*
X0022390Y0173581D01*
X0021917Y0175179D02*
X0100919Y0175179D01*
X0102517Y0176778D02*
X0021917Y0176778D01*
X0021917Y0178376D02*
X0104116Y0178376D01*
X0103128Y0179875D02*
X0104570Y0181317D01*
X0105350Y0183200D01*
X0105350Y0192289D01*
X0104570Y0194173D01*
X0103128Y0195615D01*
X0101245Y0196395D01*
X0099206Y0196395D01*
X0097322Y0195615D01*
X0095880Y0194173D01*
X0095100Y0192289D01*
X0095100Y0183200D01*
X0095880Y0181317D01*
X0097322Y0179875D01*
X0099206Y0179095D01*
X0101245Y0179095D01*
X0103128Y0179875D01*
X0103228Y0179975D02*
X0105715Y0179975D01*
X0104676Y0181573D02*
X0107313Y0181573D01*
X0108912Y0183172D02*
X0105338Y0183172D01*
X0105350Y0184770D02*
X0110510Y0184770D01*
X0112109Y0186369D02*
X0105350Y0186369D01*
X0105350Y0187967D02*
X0113573Y0187967D01*
X0112598Y0189566D02*
X0105350Y0189566D01*
X0105350Y0191164D02*
X0112392Y0191164D01*
X0112920Y0192763D02*
X0105154Y0192763D01*
X0104382Y0194361D02*
X0133932Y0194361D01*
X0133932Y0195005D02*
X0133932Y0191194D01*
X0136627Y0188499D01*
X0140438Y0188499D01*
X0143132Y0191194D01*
X0143132Y0195005D01*
X0140438Y0197699D01*
X0136627Y0197699D01*
X0133932Y0195005D01*
X0134888Y0195960D02*
X0102295Y0195960D01*
X0098156Y0195960D02*
X0083065Y0195960D01*
X0083331Y0195824D02*
X0082584Y0196205D01*
X0081787Y0196464D01*
X0080959Y0196595D01*
X0080915Y0196595D01*
X0080915Y0188120D01*
X0080165Y0188120D01*
X0080165Y0187370D01*
X0075215Y0187370D01*
X0075215Y0183801D01*
X0075346Y0182973D01*
X0075605Y0182176D01*
X0075986Y0181429D01*
X0076478Y0180751D01*
X0077071Y0180158D01*
X0077749Y0179666D01*
X0078496Y0179285D01*
X0079293Y0179026D01*
X0080121Y0178895D01*
X0080165Y0178895D01*
X0080165Y0187370D01*
X0080915Y0187370D01*
X0080915Y0178895D01*
X0080959Y0178895D01*
X0081787Y0179026D01*
X0082584Y0179285D01*
X0083331Y0179666D01*
X0084009Y0180158D01*
X0084602Y0180751D01*
X0085095Y0181429D01*
X0085475Y0182176D01*
X0085734Y0182973D01*
X0085865Y0183801D01*
X0085865Y0187370D01*
X0080915Y0187370D01*
X0080915Y0188120D01*
X0085865Y0188120D01*
X0085865Y0191689D01*
X0085734Y0192517D01*
X0085475Y0193314D01*
X0085095Y0194061D01*
X0084602Y0194739D01*
X0084009Y0195332D01*
X0083331Y0195824D01*
X0084876Y0194361D02*
X0096069Y0194361D01*
X0095296Y0192763D02*
X0085654Y0192763D01*
X0085865Y0191164D02*
X0095100Y0191164D01*
X0095100Y0189566D02*
X0085865Y0189566D01*
X0085865Y0186369D02*
X0095100Y0186369D01*
X0095100Y0187967D02*
X0080915Y0187967D01*
X0080165Y0187967D02*
X0064012Y0187967D01*
X0064012Y0186369D02*
X0075215Y0186369D01*
X0075215Y0184770D02*
X0064012Y0184770D01*
X0064012Y0183172D02*
X0075315Y0183172D01*
X0075912Y0181573D02*
X0063370Y0181573D01*
X0063231Y0181238D02*
X0064012Y0183122D01*
X0064012Y0192211D01*
X0063231Y0194094D01*
X0061790Y0195536D01*
X0059906Y0196316D01*
X0057867Y0196316D01*
X0055984Y0195536D01*
X0054542Y0194094D01*
X0053762Y0192211D01*
X0053762Y0183122D01*
X0054542Y0181238D01*
X0055984Y0179796D01*
X0057867Y0179016D01*
X0059906Y0179016D01*
X0061790Y0179796D01*
X0063231Y0181238D01*
X0061968Y0179975D02*
X0077324Y0179975D01*
X0080165Y0179975D02*
X0080915Y0179975D01*
X0080915Y0181573D02*
X0080165Y0181573D01*
X0080165Y0183172D02*
X0080915Y0183172D01*
X0080915Y0184770D02*
X0080165Y0184770D01*
X0080165Y0186369D02*
X0080915Y0186369D01*
X0080165Y0188120D02*
X0075215Y0188120D01*
X0075215Y0191689D01*
X0075346Y0192517D01*
X0075605Y0193314D01*
X0075986Y0194061D01*
X0076478Y0194739D01*
X0077071Y0195332D01*
X0077749Y0195824D01*
X0078496Y0196205D01*
X0079293Y0196464D01*
X0080121Y0196595D01*
X0080165Y0196595D01*
X0080165Y0188120D01*
X0080165Y0189566D02*
X0080915Y0189566D01*
X0080915Y0191164D02*
X0080165Y0191164D01*
X0080165Y0192763D02*
X0080915Y0192763D01*
X0080915Y0194361D02*
X0080165Y0194361D01*
X0080165Y0195960D02*
X0080915Y0195960D01*
X0078015Y0195960D02*
X0060766Y0195960D01*
X0062964Y0194361D02*
X0076204Y0194361D01*
X0075426Y0192763D02*
X0063783Y0192763D01*
X0064012Y0191164D02*
X0075215Y0191164D01*
X0075215Y0189566D02*
X0064012Y0189566D01*
X0057007Y0195960D02*
X0041081Y0195960D01*
X0040221Y0196316D02*
X0038182Y0196316D01*
X0036298Y0195536D01*
X0034857Y0194094D01*
X0034077Y0192211D01*
X0034077Y0183122D01*
X0034857Y0181238D01*
X0036298Y0179796D01*
X0038182Y0179016D01*
X0040221Y0179016D01*
X0042105Y0179796D01*
X0043546Y0181238D01*
X0044327Y0183122D01*
X0044327Y0192211D01*
X0043546Y0194094D01*
X0042105Y0195536D01*
X0040221Y0196316D01*
X0043279Y0194361D02*
X0054809Y0194361D01*
X0053990Y0192763D02*
X0044098Y0192763D01*
X0044327Y0191164D02*
X0053762Y0191164D01*
X0053762Y0189566D02*
X0044327Y0189566D01*
X0044327Y0187967D02*
X0053762Y0187967D01*
X0053762Y0186369D02*
X0044327Y0186369D01*
X0044327Y0184770D02*
X0053762Y0184770D01*
X0053762Y0183172D02*
X0044327Y0183172D01*
X0043685Y0181573D02*
X0054403Y0181573D01*
X0055805Y0179975D02*
X0042283Y0179975D01*
X0036120Y0179975D02*
X0022598Y0179975D01*
X0024000Y0181573D02*
X0034718Y0181573D01*
X0034077Y0183172D02*
X0024642Y0183172D01*
X0024642Y0184770D02*
X0034077Y0184770D01*
X0034077Y0186369D02*
X0024642Y0186369D01*
X0024642Y0187967D02*
X0034077Y0187967D01*
X0034077Y0189566D02*
X0024642Y0189566D01*
X0024642Y0191164D02*
X0034077Y0191164D01*
X0034305Y0192763D02*
X0024413Y0192763D01*
X0023594Y0194361D02*
X0035124Y0194361D01*
X0037322Y0195960D02*
X0021396Y0195960D01*
X0017637Y0195960D02*
X0010537Y0195960D01*
X0010537Y0197558D02*
X0136486Y0197558D01*
X0136627Y0198499D02*
X0140438Y0198499D01*
X0143132Y0201194D01*
X0143132Y0205005D01*
X0140438Y0207699D01*
X0136627Y0207699D01*
X0133932Y0205005D01*
X0133932Y0201194D01*
X0136627Y0198499D01*
X0135969Y0199157D02*
X0010537Y0199157D01*
X0010537Y0200755D02*
X0134371Y0200755D01*
X0133932Y0202354D02*
X0010537Y0202354D01*
X0010537Y0203952D02*
X0133932Y0203952D01*
X0134479Y0205551D02*
X0010537Y0205551D01*
X0010537Y0207149D02*
X0136077Y0207149D01*
X0140987Y0207149D02*
X0146077Y0207149D01*
X0146627Y0207699D02*
X0143932Y0205005D01*
X0143932Y0201194D01*
X0146627Y0198499D01*
X0150438Y0198499D01*
X0153132Y0201194D01*
X0153132Y0205005D01*
X0150438Y0207699D01*
X0146627Y0207699D01*
X0144479Y0205551D02*
X0142586Y0205551D01*
X0143132Y0203952D02*
X0143932Y0203952D01*
X0143932Y0202354D02*
X0143132Y0202354D01*
X0142694Y0200755D02*
X0144371Y0200755D01*
X0145969Y0199157D02*
X0141095Y0199157D01*
X0140578Y0197558D02*
X0146486Y0197558D01*
X0146627Y0197699D02*
X0143932Y0195005D01*
X0143932Y0191194D01*
X0146627Y0188499D01*
X0150438Y0188499D01*
X0153132Y0191194D01*
X0153132Y0195005D01*
X0150438Y0197699D01*
X0146627Y0197699D01*
X0144888Y0195960D02*
X0142177Y0195960D01*
X0143132Y0194361D02*
X0143932Y0194361D01*
X0143932Y0192763D02*
X0143132Y0192763D01*
X0143103Y0191164D02*
X0143962Y0191164D01*
X0145560Y0189566D02*
X0141504Y0189566D01*
X0140438Y0187699D02*
X0136627Y0187699D01*
X0133932Y0185005D01*
X0133932Y0181194D01*
X0136627Y0178499D01*
X0140438Y0178499D01*
X0143132Y0181194D01*
X0143132Y0185005D01*
X0140438Y0187699D01*
X0141768Y0186369D02*
X0145014Y0186369D01*
X0143732Y0185087D02*
X0143732Y0183299D01*
X0148332Y0183299D01*
X0148332Y0182899D01*
X0143732Y0182899D01*
X0143732Y0181111D01*
X0146544Y0178299D01*
X0148332Y0178299D01*
X0148332Y0182899D01*
X0148732Y0182899D01*
X0148732Y0178299D01*
X0150520Y0178299D01*
X0153332Y0181111D01*
X0153332Y0182899D01*
X0148732Y0182899D01*
X0148732Y0183299D01*
X0148332Y0183299D01*
X0148332Y0187899D01*
X0146544Y0187899D01*
X0143732Y0185087D01*
X0143732Y0184770D02*
X0143132Y0184770D01*
X0143132Y0183172D02*
X0148332Y0183172D01*
X0148732Y0183172D02*
X0174165Y0183172D01*
X0174165Y0184770D02*
X0153332Y0184770D01*
X0153332Y0185087D02*
X0150520Y0187899D01*
X0148732Y0187899D01*
X0148732Y0183299D01*
X0153332Y0183299D01*
X0153332Y0185087D01*
X0152051Y0186369D02*
X0174165Y0186369D01*
X0174165Y0187967D02*
X0127375Y0187967D01*
X0127409Y0189566D02*
X0135560Y0189566D01*
X0133962Y0191164D02*
X0126555Y0191164D01*
X0123847Y0188808D02*
X0123847Y0186839D01*
X0108099Y0171091D01*
X0108099Y0159280D01*
X0104162Y0155343D01*
X0090383Y0155343D01*
X0086446Y0151406D01*
X0086446Y0119910D01*
X0083659Y0117633D02*
X0082940Y0117633D01*
X0082940Y0116034D02*
X0108455Y0116034D01*
X0108455Y0116686D02*
X0108455Y0115261D01*
X0109000Y0113945D01*
X0110008Y0112937D01*
X0111324Y0112392D01*
X0112749Y0112392D01*
X0114065Y0112937D01*
X0115072Y0113945D01*
X0115617Y0115261D01*
X0115617Y0116686D01*
X0115072Y0118002D01*
X0114436Y0118638D01*
X0114436Y0154349D01*
X0118008Y0157921D01*
X0118373Y0158803D01*
X0118373Y0166160D01*
X0127597Y0175384D01*
X0128497Y0175384D01*
X0129813Y0175929D01*
X0130820Y0176937D01*
X0131365Y0178253D01*
X0131365Y0179678D01*
X0130820Y0180994D01*
X0129813Y0182001D01*
X0128497Y0182546D01*
X0127072Y0182546D01*
X0125756Y0182001D01*
X0124748Y0180994D01*
X0124203Y0179678D01*
X0124203Y0178778D01*
X0114614Y0169189D01*
X0113939Y0168514D01*
X0113573Y0167632D01*
X0113573Y0160274D01*
X0110677Y0157378D01*
X0110002Y0156703D01*
X0109636Y0155821D01*
X0109636Y0118638D01*
X0109000Y0118002D01*
X0108455Y0116686D01*
X0108847Y0117633D02*
X0089233Y0117633D01*
X0090027Y0119231D02*
X0109636Y0119231D01*
X0109636Y0120830D02*
X0089941Y0120830D01*
X0088992Y0122428D02*
X0109636Y0122428D01*
X0109636Y0124027D02*
X0088846Y0124027D01*
X0088846Y0125625D02*
X0109636Y0125625D01*
X0109636Y0127224D02*
X0088846Y0127224D01*
X0088846Y0128822D02*
X0109636Y0128822D01*
X0109636Y0130421D02*
X0088846Y0130421D01*
X0088846Y0132019D02*
X0109636Y0132019D01*
X0109636Y0133618D02*
X0088846Y0133618D01*
X0088846Y0135216D02*
X0109636Y0135216D01*
X0109636Y0136815D02*
X0088846Y0136815D01*
X0088846Y0138413D02*
X0109636Y0138413D01*
X0109636Y0140012D02*
X0088846Y0140012D01*
X0088846Y0141610D02*
X0109636Y0141610D01*
X0109636Y0143209D02*
X0088846Y0143209D01*
X0088846Y0144807D02*
X0109636Y0144807D01*
X0109636Y0146406D02*
X0088846Y0146406D01*
X0088846Y0148005D02*
X0109636Y0148005D01*
X0109636Y0149603D02*
X0088846Y0149603D01*
X0089635Y0151202D02*
X0109636Y0151202D01*
X0109636Y0152800D02*
X0091234Y0152800D01*
X0084477Y0159280D02*
X0076603Y0167154D01*
X0025422Y0167154D01*
X0019517Y0173060D01*
X0019517Y0187666D01*
X0014392Y0187967D02*
X0010537Y0187967D01*
X0010537Y0186369D02*
X0014392Y0186369D01*
X0014392Y0184770D02*
X0010537Y0184770D01*
X0010537Y0183172D02*
X0014392Y0183172D01*
X0015033Y0181573D02*
X0010537Y0181573D01*
X0010537Y0179975D02*
X0016435Y0179975D01*
X0017117Y0178376D02*
X0010537Y0178376D01*
X0010537Y0176778D02*
X0017117Y0176778D01*
X0017117Y0175179D02*
X0010537Y0175179D01*
X0010537Y0173581D02*
X0017117Y0173581D01*
X0017365Y0171982D02*
X0010537Y0171982D01*
X0010537Y0170384D02*
X0018799Y0170384D01*
X0020397Y0168785D02*
X0010537Y0168785D01*
X0010537Y0167187D02*
X0021996Y0167187D01*
X0023594Y0165588D02*
X0010537Y0165588D01*
X0010537Y0163990D02*
X0076374Y0163990D01*
X0077972Y0162391D02*
X0010537Y0162391D01*
X0010537Y0160793D02*
X0079571Y0160793D01*
X0080896Y0159194D02*
X0010537Y0159194D01*
X0010537Y0157596D02*
X0058043Y0157596D01*
X0057274Y0155997D02*
X0034366Y0155997D01*
X0034960Y0155751D02*
X0033077Y0156531D01*
X0023988Y0156531D01*
X0022104Y0155751D01*
X0020663Y0154309D01*
X0019882Y0152426D01*
X0019882Y0150387D01*
X0020663Y0148503D01*
X0022104Y0147062D01*
X0023988Y0146281D01*
X0033077Y0146281D01*
X0034960Y0147062D01*
X0036402Y0148503D01*
X0037182Y0150387D01*
X0037182Y0152426D01*
X0036402Y0154309D01*
X0034960Y0155751D01*
X0036313Y0154399D02*
X0057370Y0154399D01*
X0058334Y0152800D02*
X0054222Y0152800D01*
X0051740Y0152800D02*
X0037027Y0152800D01*
X0037182Y0151202D02*
X0049836Y0151202D01*
X0049400Y0149603D02*
X0036858Y0149603D01*
X0035903Y0148005D02*
X0049699Y0148005D01*
X0050948Y0146406D02*
X0033378Y0146406D01*
X0039142Y0138694D02*
X0038134Y0137687D01*
X0037589Y0136371D01*
X0037589Y0134946D01*
X0038134Y0133630D01*
X0038770Y0132994D01*
X0038770Y0091079D01*
X0038134Y0090443D01*
X0037589Y0089127D01*
X0037589Y0087702D01*
X0038134Y0086386D01*
X0039142Y0085378D01*
X0040458Y0084833D01*
X0041882Y0084833D01*
X0043199Y0085378D01*
X0044206Y0086386D01*
X0044751Y0087702D01*
X0044751Y0089127D01*
X0044206Y0090443D01*
X0043570Y0091079D01*
X0043570Y0132994D01*
X0044206Y0133630D01*
X0044751Y0134946D01*
X0044751Y0136371D01*
X0044206Y0137687D01*
X0043199Y0138694D01*
X0041882Y0139239D01*
X0040458Y0139239D01*
X0039142Y0138694D01*
X0038861Y0138413D02*
X0010537Y0138413D01*
X0010537Y0136815D02*
X0023912Y0136815D01*
X0023988Y0136846D02*
X0022104Y0136066D01*
X0020663Y0134624D01*
X0019882Y0132741D01*
X0019882Y0130702D01*
X0020663Y0128818D01*
X0022104Y0127376D01*
X0023988Y0126596D01*
X0033077Y0126596D01*
X0034960Y0127376D01*
X0036402Y0128818D01*
X0037182Y0130702D01*
X0037182Y0132741D01*
X0036402Y0134624D01*
X0034960Y0136066D01*
X0033077Y0136846D01*
X0023988Y0136846D01*
X0021255Y0135216D02*
X0010537Y0135216D01*
X0010537Y0133618D02*
X0020246Y0133618D01*
X0019882Y0132019D02*
X0010537Y0132019D01*
X0010537Y0130421D02*
X0019999Y0130421D01*
X0020661Y0128822D02*
X0010537Y0128822D01*
X0010537Y0127224D02*
X0022473Y0127224D01*
X0023988Y0117161D02*
X0022104Y0116381D01*
X0020663Y0114939D01*
X0019882Y0113056D01*
X0019882Y0111017D01*
X0020663Y0109133D01*
X0022104Y0107691D01*
X0023988Y0106911D01*
X0033077Y0106911D01*
X0034960Y0107691D01*
X0036402Y0109133D01*
X0037182Y0111017D01*
X0037182Y0113056D01*
X0036402Y0114939D01*
X0034960Y0116381D01*
X0033077Y0117161D01*
X0023988Y0117161D01*
X0021758Y0116034D02*
X0010537Y0116034D01*
X0010537Y0114436D02*
X0020454Y0114436D01*
X0019882Y0112837D02*
X0010537Y0112837D01*
X0010537Y0111239D02*
X0019882Y0111239D01*
X0020452Y0109640D02*
X0010537Y0109640D01*
X0010537Y0108042D02*
X0021754Y0108042D01*
X0010537Y0106443D02*
X0038770Y0106443D01*
X0038770Y0104845D02*
X0010537Y0104845D01*
X0010537Y0103246D02*
X0038770Y0103246D01*
X0038770Y0101648D02*
X0010537Y0101648D01*
X0010537Y0100049D02*
X0038770Y0100049D01*
X0038770Y0098451D02*
X0010537Y0098451D01*
X0010537Y0096852D02*
X0038770Y0096852D01*
X0038770Y0095254D02*
X0010537Y0095254D01*
X0010537Y0093655D02*
X0038770Y0093655D01*
X0038770Y0092057D02*
X0010537Y0092057D01*
X0010537Y0090458D02*
X0038150Y0090458D01*
X0037589Y0088860D02*
X0010537Y0088860D01*
X0010537Y0087261D02*
X0037772Y0087261D01*
X0038857Y0085663D02*
X0010537Y0085663D01*
X0010537Y0084064D02*
X0046644Y0084064D01*
X0046644Y0082466D02*
X0010537Y0082466D01*
X0010537Y0080867D02*
X0046644Y0080867D01*
X0046644Y0079269D02*
X0010537Y0079269D01*
X0010537Y0077670D02*
X0046644Y0077670D01*
X0046644Y0076072D02*
X0010537Y0076072D01*
X0010537Y0074473D02*
X0046644Y0074473D01*
X0046644Y0072874D02*
X0010537Y0072874D01*
X0010537Y0071276D02*
X0046644Y0071276D01*
X0046598Y0069677D02*
X0010537Y0069677D01*
X0010537Y0068079D02*
X0045000Y0068079D01*
X0043401Y0066480D02*
X0010537Y0066480D01*
X0010537Y0064882D02*
X0041803Y0064882D01*
X0040204Y0063283D02*
X0010537Y0063283D01*
X0010537Y0061685D02*
X0038606Y0061685D01*
X0037007Y0060086D02*
X0010537Y0060086D01*
X0010537Y0058488D02*
X0035409Y0058488D01*
X0033810Y0056889D02*
X0010537Y0056889D01*
X0010537Y0055291D02*
X0032865Y0055291D01*
X0032865Y0053692D02*
X0010537Y0053692D01*
X0010537Y0052094D02*
X0032865Y0052094D01*
X0031990Y0050495D02*
X0010537Y0050495D01*
X0010537Y0048897D02*
X0031683Y0048897D01*
X0032112Y0047298D02*
X0010537Y0047298D01*
X0010537Y0045700D02*
X0033981Y0045700D01*
X0035265Y0049044D02*
X0035265Y0054950D01*
X0049044Y0068729D01*
X0049044Y0096288D01*
X0052981Y0100225D01*
X0052981Y0139595D01*
X0056918Y0143532D01*
X0054799Y0144807D02*
X0010537Y0144807D01*
X0010537Y0143209D02*
X0053201Y0143209D01*
X0051602Y0141610D02*
X0010537Y0141610D01*
X0010537Y0140012D02*
X0050581Y0140012D01*
X0050581Y0138413D02*
X0043479Y0138413D01*
X0044567Y0136815D02*
X0050581Y0136815D01*
X0050581Y0135216D02*
X0044751Y0135216D01*
X0044194Y0133618D02*
X0050581Y0133618D01*
X0050581Y0132019D02*
X0043570Y0132019D01*
X0043570Y0130421D02*
X0050581Y0130421D01*
X0050581Y0128822D02*
X0043570Y0128822D01*
X0043570Y0127224D02*
X0050581Y0127224D01*
X0050581Y0125625D02*
X0043570Y0125625D01*
X0043570Y0124027D02*
X0050581Y0124027D01*
X0050581Y0122428D02*
X0043570Y0122428D01*
X0043570Y0120830D02*
X0050581Y0120830D01*
X0050581Y0119231D02*
X0043570Y0119231D01*
X0043570Y0117633D02*
X0050581Y0117633D01*
X0050581Y0116034D02*
X0043570Y0116034D01*
X0043570Y0114436D02*
X0050581Y0114436D01*
X0050581Y0112837D02*
X0043570Y0112837D01*
X0043570Y0111239D02*
X0050581Y0111239D01*
X0050581Y0109640D02*
X0043570Y0109640D01*
X0043570Y0108042D02*
X0050581Y0108042D01*
X0050581Y0106443D02*
X0043570Y0106443D01*
X0043570Y0104845D02*
X0050581Y0104845D01*
X0050581Y0103246D02*
X0043570Y0103246D01*
X0043570Y0101648D02*
X0050581Y0101648D01*
X0049411Y0100049D02*
X0043570Y0100049D01*
X0043570Y0098451D02*
X0047812Y0098451D01*
X0046680Y0096852D02*
X0043570Y0096852D01*
X0043570Y0095254D02*
X0046644Y0095254D01*
X0046644Y0093655D02*
X0043570Y0093655D01*
X0043570Y0092057D02*
X0046644Y0092057D01*
X0046644Y0090458D02*
X0044191Y0090458D01*
X0044751Y0088860D02*
X0046644Y0088860D01*
X0046644Y0087261D02*
X0044569Y0087261D01*
X0043483Y0085663D02*
X0046644Y0085663D01*
X0051444Y0087261D02*
X0068119Y0087261D01*
X0066520Y0085663D02*
X0058662Y0085663D01*
X0056918Y0082509D02*
X0060855Y0078572D01*
X0060855Y0039202D01*
X0058455Y0042503D02*
X0048431Y0042503D01*
X0048688Y0040904D02*
X0057684Y0040904D01*
X0057274Y0039306D02*
X0048211Y0039306D01*
X0047240Y0044101D02*
X0058455Y0044101D01*
X0058455Y0045700D02*
X0036549Y0045700D01*
X0038418Y0047298D02*
X0058455Y0047298D01*
X0058455Y0048897D02*
X0038846Y0048897D01*
X0038540Y0050495D02*
X0058455Y0050495D01*
X0058455Y0052094D02*
X0037665Y0052094D01*
X0037665Y0053692D02*
X0058455Y0053692D01*
X0058455Y0055291D02*
X0039000Y0055291D01*
X0040598Y0056889D02*
X0058455Y0056889D01*
X0058455Y0058488D02*
X0042197Y0058488D01*
X0043795Y0060086D02*
X0058455Y0060086D01*
X0058455Y0061685D02*
X0045394Y0061685D01*
X0046992Y0063283D02*
X0058455Y0063283D01*
X0058455Y0064882D02*
X0048591Y0064882D01*
X0050190Y0066480D02*
X0058455Y0066480D01*
X0058455Y0068079D02*
X0051373Y0068079D01*
X0051444Y0069677D02*
X0058455Y0069677D01*
X0063164Y0079269D02*
X0135575Y0079269D01*
X0133976Y0080867D02*
X0068513Y0080867D01*
X0070112Y0082466D02*
X0133732Y0082466D01*
X0133732Y0083299D02*
X0138332Y0083299D01*
X0138332Y0082899D01*
X0138732Y0082899D01*
X0138732Y0083299D01*
X0138332Y0083299D01*
X0138332Y0087899D01*
X0136544Y0087899D01*
X0133732Y0085087D01*
X0133732Y0083299D01*
X0133732Y0084064D02*
X0071710Y0084064D01*
X0073309Y0085663D02*
X0134307Y0085663D01*
X0135906Y0087261D02*
X0074907Y0087261D01*
X0076506Y0088860D02*
X0136267Y0088860D01*
X0136627Y0088499D02*
X0133932Y0091194D01*
X0133932Y0095005D01*
X0136627Y0097699D01*
X0140438Y0097699D01*
X0143132Y0095005D01*
X0143132Y0091194D01*
X0140438Y0088499D01*
X0136627Y0088499D01*
X0138332Y0087261D02*
X0138732Y0087261D01*
X0138732Y0087899D02*
X0138732Y0083299D01*
X0143332Y0083299D01*
X0143332Y0085087D01*
X0140520Y0087899D01*
X0138732Y0087899D01*
X0138732Y0085663D02*
X0138332Y0085663D01*
X0138332Y0084064D02*
X0138732Y0084064D01*
X0138732Y0082466D02*
X0138332Y0082466D01*
X0138332Y0080867D02*
X0138732Y0080867D01*
X0142757Y0085663D02*
X0144590Y0085663D01*
X0143932Y0084064D02*
X0143332Y0084064D01*
X0143332Y0082466D02*
X0143932Y0082466D01*
X0144259Y0080867D02*
X0143088Y0080867D01*
X0141159Y0087261D02*
X0146189Y0087261D01*
X0146627Y0088499D02*
X0150438Y0088499D01*
X0153132Y0091194D01*
X0153132Y0095005D01*
X0150438Y0097699D01*
X0146627Y0097699D01*
X0143932Y0095005D01*
X0143932Y0091194D01*
X0146627Y0088499D01*
X0146267Y0088860D02*
X0140798Y0088860D01*
X0142397Y0090458D02*
X0144668Y0090458D01*
X0143932Y0092057D02*
X0143132Y0092057D01*
X0143132Y0093655D02*
X0143932Y0093655D01*
X0144181Y0095254D02*
X0142883Y0095254D01*
X0141285Y0096852D02*
X0145780Y0096852D01*
X0146627Y0098499D02*
X0150438Y0098499D01*
X0153132Y0101194D01*
X0153132Y0105005D01*
X0150438Y0107699D01*
X0146627Y0107699D01*
X0143932Y0105005D01*
X0143932Y0101194D01*
X0146627Y0098499D01*
X0145077Y0100049D02*
X0141988Y0100049D01*
X0143132Y0101194D02*
X0140438Y0098499D01*
X0136627Y0098499D01*
X0133932Y0101194D01*
X0133932Y0105005D01*
X0136627Y0107699D01*
X0140438Y0107699D01*
X0143132Y0105005D01*
X0143132Y0101194D01*
X0143132Y0101648D02*
X0143932Y0101648D01*
X0143932Y0103246D02*
X0143132Y0103246D01*
X0143132Y0104845D02*
X0143932Y0104845D01*
X0145371Y0106443D02*
X0141694Y0106443D01*
X0140438Y0108499D02*
X0143132Y0111194D01*
X0143132Y0115005D01*
X0140438Y0117699D01*
X0136627Y0117699D01*
X0133932Y0115005D01*
X0133932Y0111194D01*
X0136627Y0108499D01*
X0140438Y0108499D01*
X0141579Y0109640D02*
X0145203Y0109640D01*
X0146544Y0108299D02*
X0143732Y0111111D01*
X0143732Y0112899D01*
X0148332Y0112899D01*
X0148332Y0113299D01*
X0143732Y0113299D01*
X0143732Y0115087D01*
X0146544Y0117899D01*
X0148332Y0117899D01*
X0148332Y0113299D01*
X0148732Y0113299D01*
X0148732Y0117899D01*
X0150520Y0117899D01*
X0153332Y0115087D01*
X0153332Y0113299D01*
X0148732Y0113299D01*
X0148732Y0112899D01*
X0148732Y0108299D01*
X0150520Y0108299D01*
X0153332Y0111111D01*
X0153332Y0112899D01*
X0148732Y0112899D01*
X0148332Y0112899D01*
X0148332Y0108299D01*
X0146544Y0108299D01*
X0148332Y0109640D02*
X0148732Y0109640D01*
X0148732Y0111239D02*
X0148332Y0111239D01*
X0148332Y0112837D02*
X0148732Y0112837D01*
X0148732Y0114436D02*
X0148332Y0114436D01*
X0148332Y0116034D02*
X0148732Y0116034D01*
X0148732Y0117633D02*
X0148332Y0117633D01*
X0146627Y0118499D02*
X0150438Y0118499D01*
X0153132Y0121194D01*
X0153132Y0125005D01*
X0150438Y0127699D01*
X0146627Y0127699D01*
X0143932Y0125005D01*
X0143932Y0121194D01*
X0146627Y0118499D01*
X0146278Y0117633D02*
X0140504Y0117633D01*
X0140438Y0118499D02*
X0143132Y0121194D01*
X0143132Y0125005D01*
X0140438Y0127699D01*
X0136627Y0127699D01*
X0133932Y0125005D01*
X0133932Y0121194D01*
X0136627Y0118499D01*
X0140438Y0118499D01*
X0141170Y0119231D02*
X0145895Y0119231D01*
X0144296Y0120830D02*
X0142768Y0120830D01*
X0143132Y0122428D02*
X0143932Y0122428D01*
X0143932Y0124027D02*
X0143132Y0124027D01*
X0142512Y0125625D02*
X0144553Y0125625D01*
X0146152Y0127224D02*
X0140913Y0127224D01*
X0140438Y0128499D02*
X0143132Y0131194D01*
X0143132Y0135005D01*
X0140438Y0137699D01*
X0136627Y0137699D01*
X0133932Y0135005D01*
X0133932Y0131194D01*
X0136627Y0128499D01*
X0140438Y0128499D01*
X0140761Y0128822D02*
X0146304Y0128822D01*
X0146627Y0128499D02*
X0143932Y0131194D01*
X0143932Y0135005D01*
X0146627Y0137699D01*
X0150438Y0137699D01*
X0153132Y0135005D01*
X0153132Y0131194D01*
X0150438Y0128499D01*
X0146627Y0128499D01*
X0144705Y0130421D02*
X0142359Y0130421D01*
X0143132Y0132019D02*
X0143932Y0132019D01*
X0143932Y0133618D02*
X0143132Y0133618D01*
X0142920Y0135216D02*
X0144144Y0135216D01*
X0145743Y0136815D02*
X0141322Y0136815D01*
X0140438Y0138499D02*
X0143132Y0141194D01*
X0143132Y0145005D01*
X0140438Y0147699D01*
X0136627Y0147699D01*
X0133932Y0145005D01*
X0133932Y0141194D01*
X0136627Y0138499D01*
X0140438Y0138499D01*
X0141950Y0140012D02*
X0144831Y0140012D01*
X0143732Y0141111D02*
X0146544Y0138299D01*
X0148332Y0138299D01*
X0148332Y0142899D01*
X0143732Y0142899D01*
X0143732Y0141111D01*
X0143732Y0141610D02*
X0143132Y0141610D01*
X0143132Y0143209D02*
X0148332Y0143209D01*
X0148332Y0143299D02*
X0148332Y0142899D01*
X0148732Y0142899D01*
X0148732Y0138299D01*
X0150520Y0138299D01*
X0153332Y0141111D01*
X0153332Y0142899D01*
X0148732Y0142899D01*
X0148732Y0143299D01*
X0148332Y0143299D01*
X0143732Y0143299D01*
X0143732Y0145087D01*
X0146544Y0147899D01*
X0148332Y0147899D01*
X0148332Y0143299D01*
X0148732Y0143299D02*
X0148732Y0147899D01*
X0150520Y0147899D01*
X0153332Y0145087D01*
X0153332Y0143299D01*
X0148732Y0143299D01*
X0148732Y0143209D02*
X0174165Y0143209D01*
X0174165Y0144807D02*
X0153332Y0144807D01*
X0152014Y0146406D02*
X0174165Y0146406D01*
X0174165Y0148005D02*
X0127428Y0148005D01*
X0127428Y0147741D02*
X0127428Y0148641D01*
X0129487Y0150699D01*
X0134427Y0150699D01*
X0136627Y0148499D01*
X0140438Y0148499D01*
X0143132Y0151194D01*
X0143132Y0155005D01*
X0140438Y0157699D01*
X0136627Y0157699D01*
X0134427Y0155499D01*
X0128016Y0155499D01*
X0127133Y0155134D01*
X0124034Y0152035D01*
X0123135Y0152035D01*
X0121819Y0151489D01*
X0120811Y0150482D01*
X0120266Y0149166D01*
X0120266Y0147741D01*
X0120811Y0146425D01*
X0121819Y0145418D01*
X0123135Y0144872D01*
X0124560Y0144872D01*
X0125876Y0145418D01*
X0126883Y0146425D01*
X0127428Y0147741D01*
X0126864Y0146406D02*
X0135334Y0146406D01*
X0133932Y0144807D02*
X0114436Y0144807D01*
X0114436Y0143209D02*
X0133932Y0143209D01*
X0133932Y0141610D02*
X0114436Y0141610D01*
X0114436Y0140012D02*
X0135114Y0140012D01*
X0135743Y0136815D02*
X0114436Y0136815D01*
X0114436Y0138413D02*
X0146430Y0138413D01*
X0148332Y0138413D02*
X0148732Y0138413D01*
X0148732Y0140012D02*
X0148332Y0140012D01*
X0148332Y0141610D02*
X0148732Y0141610D01*
X0148732Y0144807D02*
X0148332Y0144807D01*
X0148332Y0146406D02*
X0148732Y0146406D01*
X0150438Y0148499D02*
X0146627Y0148499D01*
X0143932Y0151194D01*
X0143932Y0155005D01*
X0146627Y0157699D01*
X0150438Y0157699D01*
X0153132Y0155005D01*
X0153132Y0151194D01*
X0150438Y0148499D01*
X0151541Y0149603D02*
X0174165Y0149603D01*
X0174165Y0151202D02*
X0153132Y0151202D01*
X0153132Y0152800D02*
X0174165Y0152800D01*
X0174165Y0154399D02*
X0153132Y0154399D01*
X0152140Y0155997D02*
X0174165Y0155997D01*
X0174165Y0157596D02*
X0150541Y0157596D01*
X0150438Y0158499D02*
X0153132Y0161194D01*
X0153132Y0165005D01*
X0150438Y0167699D01*
X0146627Y0167699D01*
X0143932Y0165005D01*
X0143932Y0161194D01*
X0146627Y0158499D01*
X0150438Y0158499D01*
X0151133Y0159194D02*
X0174165Y0159194D01*
X0174165Y0160793D02*
X0152731Y0160793D01*
X0153132Y0162391D02*
X0174165Y0162391D01*
X0174165Y0163990D02*
X0153132Y0163990D01*
X0152549Y0165588D02*
X0174165Y0165588D01*
X0174165Y0167187D02*
X0150950Y0167187D01*
X0150438Y0168499D02*
X0153132Y0171194D01*
X0153132Y0175005D01*
X0150438Y0177699D01*
X0146627Y0177699D01*
X0143932Y0175005D01*
X0143932Y0171194D01*
X0146627Y0168499D01*
X0150438Y0168499D01*
X0150724Y0168785D02*
X0174165Y0168785D01*
X0174165Y0170384D02*
X0152322Y0170384D01*
X0153132Y0171982D02*
X0174165Y0171982D01*
X0174165Y0173581D02*
X0153132Y0173581D01*
X0152958Y0175179D02*
X0174165Y0175179D01*
X0174165Y0176778D02*
X0151359Y0176778D01*
X0150598Y0178376D02*
X0174165Y0178376D01*
X0174165Y0179975D02*
X0152196Y0179975D01*
X0153332Y0181573D02*
X0174165Y0181573D01*
X0174165Y0189566D02*
X0151504Y0189566D01*
X0153103Y0191164D02*
X0174165Y0191164D01*
X0174165Y0192763D02*
X0153132Y0192763D01*
X0153132Y0194361D02*
X0174165Y0194361D01*
X0174165Y0195960D02*
X0152177Y0195960D01*
X0150578Y0197558D02*
X0174165Y0197558D01*
X0174165Y0199157D02*
X0151095Y0199157D01*
X0152694Y0200755D02*
X0174165Y0200755D01*
X0174165Y0202354D02*
X0153132Y0202354D01*
X0153132Y0203952D02*
X0174165Y0203952D01*
X0174165Y0205551D02*
X0152586Y0205551D01*
X0150987Y0207149D02*
X0174165Y0207149D01*
X0174165Y0208748D02*
X0010537Y0208748D01*
X0010537Y0194361D02*
X0015439Y0194361D01*
X0014620Y0192763D02*
X0010537Y0192763D01*
X0010537Y0191164D02*
X0014392Y0191164D01*
X0014392Y0189566D02*
X0010537Y0189566D01*
X0010537Y0155997D02*
X0022698Y0155997D01*
X0020752Y0154399D02*
X0010537Y0154399D01*
X0010537Y0152800D02*
X0020037Y0152800D01*
X0019882Y0151202D02*
X0010537Y0151202D01*
X0010537Y0149603D02*
X0020207Y0149603D01*
X0021161Y0148005D02*
X0010537Y0148005D01*
X0010537Y0146406D02*
X0023687Y0146406D01*
X0033152Y0136815D02*
X0037773Y0136815D01*
X0037589Y0135216D02*
X0035810Y0135216D01*
X0036819Y0133618D02*
X0038146Y0133618D01*
X0038770Y0132019D02*
X0037182Y0132019D01*
X0037066Y0130421D02*
X0038770Y0130421D01*
X0038770Y0128822D02*
X0036404Y0128822D01*
X0034592Y0127224D02*
X0038770Y0127224D01*
X0038770Y0125625D02*
X0010537Y0125625D01*
X0010537Y0124027D02*
X0038770Y0124027D01*
X0038770Y0122428D02*
X0010537Y0122428D01*
X0010537Y0120830D02*
X0038770Y0120830D01*
X0038770Y0119231D02*
X0010537Y0119231D01*
X0010537Y0117633D02*
X0038770Y0117633D01*
X0038770Y0116034D02*
X0035307Y0116034D01*
X0036611Y0114436D02*
X0038770Y0114436D01*
X0038770Y0112837D02*
X0037182Y0112837D01*
X0037182Y0111239D02*
X0038770Y0111239D01*
X0038770Y0109640D02*
X0036612Y0109640D01*
X0035311Y0108042D02*
X0038770Y0108042D01*
X0051444Y0095254D02*
X0076112Y0095254D01*
X0077710Y0096852D02*
X0053002Y0096852D01*
X0054601Y0098451D02*
X0078140Y0098451D01*
X0078140Y0100049D02*
X0055381Y0100049D01*
X0055381Y0101648D02*
X0078140Y0101648D01*
X0078140Y0103246D02*
X0055381Y0103246D01*
X0055381Y0104845D02*
X0078140Y0104845D01*
X0078140Y0106443D02*
X0055381Y0106443D01*
X0055381Y0108042D02*
X0078140Y0108042D01*
X0078140Y0109640D02*
X0055381Y0109640D01*
X0055381Y0111239D02*
X0078140Y0111239D01*
X0078140Y0112837D02*
X0055381Y0112837D01*
X0055381Y0114436D02*
X0078140Y0114436D01*
X0078140Y0116034D02*
X0055381Y0116034D01*
X0055381Y0117633D02*
X0078140Y0117633D01*
X0078140Y0119231D02*
X0055381Y0119231D01*
X0055381Y0120830D02*
X0078140Y0120830D01*
X0078140Y0122428D02*
X0055381Y0122428D01*
X0055381Y0124027D02*
X0078140Y0124027D01*
X0077635Y0125625D02*
X0055381Y0125625D01*
X0055381Y0127224D02*
X0076959Y0127224D01*
X0077094Y0128822D02*
X0055381Y0128822D01*
X0041170Y0135658D02*
X0041170Y0088414D01*
X0051444Y0088860D02*
X0069717Y0088860D01*
X0071316Y0090458D02*
X0051444Y0090458D01*
X0051444Y0092057D02*
X0072914Y0092057D01*
X0074513Y0093655D02*
X0051444Y0093655D01*
X0078104Y0090458D02*
X0134668Y0090458D01*
X0133932Y0092057D02*
X0079703Y0092057D01*
X0081301Y0093655D02*
X0133932Y0093655D01*
X0134181Y0095254D02*
X0082709Y0095254D01*
X0082940Y0096852D02*
X0135780Y0096852D01*
X0135077Y0100049D02*
X0082940Y0100049D01*
X0082940Y0098451D02*
X0174165Y0098451D01*
X0174165Y0100049D02*
X0151988Y0100049D01*
X0153132Y0101648D02*
X0174165Y0101648D01*
X0174165Y0103246D02*
X0153132Y0103246D01*
X0153132Y0104845D02*
X0174165Y0104845D01*
X0174165Y0106443D02*
X0151694Y0106443D01*
X0151862Y0109640D02*
X0174165Y0109640D01*
X0174165Y0108042D02*
X0082940Y0108042D01*
X0082940Y0109640D02*
X0135486Y0109640D01*
X0133932Y0111239D02*
X0082940Y0111239D01*
X0082940Y0112837D02*
X0110249Y0112837D01*
X0108797Y0114436D02*
X0082940Y0114436D01*
X0082940Y0106443D02*
X0135371Y0106443D01*
X0133932Y0104845D02*
X0082940Y0104845D01*
X0082940Y0103246D02*
X0133932Y0103246D01*
X0133932Y0101648D02*
X0082940Y0101648D01*
X0112036Y0115973D02*
X0112036Y0155343D01*
X0115973Y0159280D01*
X0115973Y0167154D01*
X0127784Y0178965D01*
X0125328Y0181573D02*
X0121975Y0181573D01*
X0120377Y0179975D02*
X0124326Y0179975D01*
X0123801Y0178376D02*
X0118778Y0178376D01*
X0117180Y0176778D02*
X0122203Y0176778D01*
X0120604Y0175179D02*
X0115581Y0175179D01*
X0113983Y0173581D02*
X0119005Y0173581D01*
X0117407Y0171982D02*
X0112384Y0171982D01*
X0110786Y0170384D02*
X0115808Y0170384D01*
X0114210Y0168785D02*
X0110499Y0168785D01*
X0110499Y0167187D02*
X0113573Y0167187D01*
X0113573Y0165588D02*
X0110499Y0165588D01*
X0110499Y0163990D02*
X0113573Y0163990D01*
X0113573Y0162391D02*
X0110499Y0162391D01*
X0110499Y0160793D02*
X0113573Y0160793D01*
X0112493Y0159194D02*
X0110499Y0159194D01*
X0110894Y0157596D02*
X0109809Y0157596D01*
X0109709Y0155997D02*
X0108210Y0155997D01*
X0109636Y0154399D02*
X0106612Y0154399D01*
X0105699Y0162391D02*
X0102495Y0162391D01*
X0103606Y0163990D02*
X0105699Y0163990D01*
X0105699Y0165588D02*
X0103806Y0165588D01*
X0103273Y0167187D02*
X0105699Y0167187D01*
X0105699Y0168785D02*
X0102625Y0168785D01*
X0102912Y0170384D02*
X0105699Y0170384D01*
X0105870Y0171982D02*
X0104510Y0171982D01*
X0106109Y0173581D02*
X0107194Y0173581D01*
X0107707Y0175179D02*
X0108793Y0175179D01*
X0109306Y0176778D02*
X0110391Y0176778D01*
X0110904Y0178376D02*
X0111990Y0178376D01*
X0112503Y0179975D02*
X0113589Y0179975D01*
X0114101Y0181573D02*
X0115187Y0181573D01*
X0115700Y0183172D02*
X0116786Y0183172D01*
X0117298Y0184770D02*
X0118384Y0184770D01*
X0118373Y0186369D02*
X0119983Y0186369D01*
X0120319Y0187967D02*
X0118373Y0187967D01*
X0119348Y0189566D02*
X0120285Y0189566D01*
X0119554Y0191164D02*
X0121139Y0191164D01*
X0119027Y0192763D02*
X0133932Y0192763D01*
X0135296Y0186369D02*
X0126473Y0186369D01*
X0125172Y0184770D02*
X0133932Y0184770D01*
X0133932Y0183172D02*
X0123574Y0183172D01*
X0127392Y0175179D02*
X0134107Y0175179D01*
X0133932Y0175005D02*
X0133932Y0171194D01*
X0136627Y0168499D01*
X0140438Y0168499D01*
X0143132Y0171194D01*
X0143132Y0175005D01*
X0140438Y0177699D01*
X0136627Y0177699D01*
X0133932Y0175005D01*
X0133932Y0173581D02*
X0125794Y0173581D01*
X0124195Y0171982D02*
X0133932Y0171982D01*
X0134742Y0170384D02*
X0122597Y0170384D01*
X0120998Y0168785D02*
X0136341Y0168785D01*
X0136544Y0167899D02*
X0133732Y0165087D01*
X0133732Y0163299D01*
X0138332Y0163299D01*
X0138332Y0162899D01*
X0133732Y0162899D01*
X0133732Y0161111D01*
X0136544Y0158299D01*
X0138332Y0158299D01*
X0138332Y0162899D01*
X0138732Y0162899D01*
X0138732Y0158299D01*
X0140520Y0158299D01*
X0143332Y0161111D01*
X0143332Y0162899D01*
X0138732Y0162899D01*
X0138732Y0163299D01*
X0138332Y0163299D01*
X0138332Y0167899D01*
X0136544Y0167899D01*
X0135832Y0167187D02*
X0119400Y0167187D01*
X0118373Y0165588D02*
X0134233Y0165588D01*
X0133732Y0163990D02*
X0118373Y0163990D01*
X0118373Y0162391D02*
X0133732Y0162391D01*
X0134051Y0160793D02*
X0118373Y0160793D01*
X0118373Y0159194D02*
X0135649Y0159194D01*
X0136523Y0157596D02*
X0117683Y0157596D01*
X0116084Y0155997D02*
X0134925Y0155997D01*
X0138532Y0153099D02*
X0128493Y0153099D01*
X0123847Y0148454D01*
X0121531Y0151202D02*
X0114436Y0151202D01*
X0114436Y0152800D02*
X0124800Y0152800D01*
X0126398Y0154399D02*
X0114486Y0154399D01*
X0114436Y0149603D02*
X0120447Y0149603D01*
X0120266Y0148005D02*
X0114436Y0148005D01*
X0114436Y0146406D02*
X0120830Y0146406D01*
X0128391Y0149603D02*
X0135523Y0149603D01*
X0140541Y0157596D02*
X0146523Y0157596D01*
X0145932Y0159194D02*
X0141415Y0159194D01*
X0143014Y0160793D02*
X0144334Y0160793D01*
X0143932Y0162391D02*
X0143332Y0162391D01*
X0143332Y0163299D02*
X0143332Y0165087D01*
X0140520Y0167899D01*
X0138732Y0167899D01*
X0138732Y0163299D01*
X0143332Y0163299D01*
X0143332Y0163990D02*
X0143932Y0163990D01*
X0144516Y0165588D02*
X0142832Y0165588D01*
X0141233Y0167187D02*
X0146114Y0167187D01*
X0146341Y0168785D02*
X0140724Y0168785D01*
X0142322Y0170384D02*
X0144742Y0170384D01*
X0143932Y0171982D02*
X0143132Y0171982D01*
X0143132Y0173581D02*
X0143932Y0173581D01*
X0144107Y0175179D02*
X0142958Y0175179D01*
X0141359Y0176778D02*
X0145705Y0176778D01*
X0146467Y0178376D02*
X0131365Y0178376D01*
X0131242Y0179975D02*
X0135151Y0179975D01*
X0133932Y0181573D02*
X0130241Y0181573D01*
X0130661Y0176778D02*
X0135705Y0176778D01*
X0141913Y0179975D02*
X0144869Y0179975D01*
X0143732Y0181573D02*
X0143132Y0181573D01*
X0148332Y0181573D02*
X0148732Y0181573D01*
X0148732Y0179975D02*
X0148332Y0179975D01*
X0148332Y0178376D02*
X0148732Y0178376D01*
X0148732Y0184770D02*
X0148332Y0184770D01*
X0148332Y0186369D02*
X0148732Y0186369D01*
X0138732Y0167187D02*
X0138332Y0167187D01*
X0138332Y0165588D02*
X0138732Y0165588D01*
X0138732Y0163990D02*
X0138332Y0163990D01*
X0138332Y0162391D02*
X0138732Y0162391D01*
X0138732Y0160793D02*
X0138332Y0160793D01*
X0138332Y0159194D02*
X0138732Y0159194D01*
X0142140Y0155997D02*
X0144925Y0155997D01*
X0143932Y0154399D02*
X0143132Y0154399D01*
X0143132Y0152800D02*
X0143932Y0152800D01*
X0143932Y0151202D02*
X0143132Y0151202D01*
X0141541Y0149603D02*
X0145523Y0149603D01*
X0145051Y0146406D02*
X0141731Y0146406D01*
X0143132Y0144807D02*
X0143732Y0144807D01*
X0150635Y0138413D02*
X0174165Y0138413D01*
X0174165Y0136815D02*
X0151322Y0136815D01*
X0152920Y0135216D02*
X0174165Y0135216D01*
X0174165Y0133618D02*
X0153132Y0133618D01*
X0153132Y0132019D02*
X0174165Y0132019D01*
X0174165Y0130421D02*
X0152359Y0130421D01*
X0150761Y0128822D02*
X0174165Y0128822D01*
X0174165Y0127224D02*
X0150913Y0127224D01*
X0152512Y0125625D02*
X0174165Y0125625D01*
X0174165Y0124027D02*
X0153132Y0124027D01*
X0153132Y0122428D02*
X0174165Y0122428D01*
X0174165Y0120830D02*
X0152768Y0120830D01*
X0151170Y0119231D02*
X0174165Y0119231D01*
X0174165Y0117633D02*
X0150787Y0117633D01*
X0152385Y0116034D02*
X0174165Y0116034D01*
X0174165Y0114436D02*
X0153332Y0114436D01*
X0153332Y0112837D02*
X0174165Y0112837D01*
X0174165Y0111239D02*
X0153332Y0111239D01*
X0144679Y0116034D02*
X0142103Y0116034D01*
X0143132Y0114436D02*
X0143732Y0114436D01*
X0143732Y0112837D02*
X0143132Y0112837D01*
X0143132Y0111239D02*
X0143732Y0111239D01*
X0136560Y0117633D02*
X0115225Y0117633D01*
X0115617Y0116034D02*
X0134962Y0116034D01*
X0133932Y0114436D02*
X0115276Y0114436D01*
X0113823Y0112837D02*
X0133932Y0112837D01*
X0135895Y0119231D02*
X0114436Y0119231D01*
X0114436Y0120830D02*
X0134296Y0120830D01*
X0133932Y0122428D02*
X0114436Y0122428D01*
X0114436Y0124027D02*
X0133932Y0124027D01*
X0134553Y0125625D02*
X0114436Y0125625D01*
X0114436Y0127224D02*
X0136152Y0127224D01*
X0136304Y0128822D02*
X0114436Y0128822D01*
X0114436Y0130421D02*
X0134705Y0130421D01*
X0133932Y0132019D02*
X0114436Y0132019D01*
X0114436Y0133618D02*
X0133932Y0133618D01*
X0134144Y0135216D02*
X0114436Y0135216D01*
X0100225Y0165186D02*
X0100225Y0171091D01*
X0115973Y0186839D01*
X0115973Y0190776D01*
X0097222Y0179975D02*
X0083757Y0179975D01*
X0085168Y0181573D02*
X0095774Y0181573D01*
X0095112Y0183172D02*
X0085766Y0183172D01*
X0085865Y0184770D02*
X0095100Y0184770D01*
X0081299Y0157596D02*
X0079415Y0157596D01*
X0080184Y0155997D02*
X0083046Y0155997D01*
X0076603Y0155343D02*
X0060855Y0155343D01*
X0063376Y0152800D02*
X0074082Y0152800D01*
X0072666Y0149438D02*
X0076603Y0145501D01*
X0072666Y0149438D02*
X0052981Y0149438D01*
X0055014Y0146406D02*
X0066538Y0146406D01*
X0070920Y0146406D02*
X0072304Y0146406D01*
X0063255Y0056889D02*
X0135817Y0056889D01*
X0134219Y0055291D02*
X0063255Y0055291D01*
X0063255Y0053692D02*
X0133932Y0053692D01*
X0133932Y0052094D02*
X0063255Y0052094D01*
X0063255Y0050495D02*
X0134631Y0050495D01*
X0136229Y0048897D02*
X0063255Y0048897D01*
X0063255Y0047298D02*
X0136226Y0047298D01*
X0134627Y0045700D02*
X0063255Y0045700D01*
X0063255Y0044101D02*
X0133932Y0044101D01*
X0133932Y0042503D02*
X0063255Y0042503D01*
X0064026Y0040904D02*
X0134222Y0040904D01*
X0135820Y0039306D02*
X0064436Y0039306D01*
X0023242Y0034510D02*
X0010537Y0034510D01*
X0010537Y0032912D02*
X0020704Y0032912D01*
X0018418Y0031313D02*
X0010537Y0031313D01*
X0010537Y0029715D02*
X0017904Y0029715D01*
X0018124Y0028116D02*
X0010537Y0028116D01*
X0010537Y0026518D02*
X0019262Y0026518D01*
X0010537Y0024919D02*
X0133932Y0024919D01*
X0133932Y0023321D02*
X0010537Y0023321D01*
X0010537Y0021722D02*
X0133932Y0021722D01*
X0135002Y0020124D02*
X0010537Y0020124D01*
X0010537Y0018525D02*
X0136601Y0018525D01*
X0136544Y0017899D02*
X0133732Y0015087D01*
X0133732Y0013299D01*
X0138332Y0013299D01*
X0138332Y0012899D01*
X0133732Y0012899D01*
X0133732Y0011111D01*
X0136544Y0008299D01*
X0138332Y0008299D01*
X0138332Y0012899D01*
X0138732Y0012899D01*
X0138732Y0008299D01*
X0140520Y0008299D01*
X0143332Y0011111D01*
X0143332Y0012899D01*
X0138732Y0012899D01*
X0138732Y0013299D01*
X0138332Y0013299D01*
X0138332Y0017899D01*
X0136544Y0017899D01*
X0135571Y0016927D02*
X0010537Y0016927D01*
X0010537Y0015328D02*
X0133973Y0015328D01*
X0133732Y0013730D02*
X0010537Y0013730D01*
X0010537Y0012131D02*
X0133732Y0012131D01*
X0134311Y0010533D02*
X0010537Y0010533D01*
X0010537Y0008934D02*
X0135909Y0008934D01*
X0138332Y0008934D02*
X0138732Y0008934D01*
X0138732Y0010533D02*
X0138332Y0010533D01*
X0138332Y0012131D02*
X0138732Y0012131D01*
X0138732Y0013299D02*
X0143332Y0013299D01*
X0143332Y0015087D01*
X0140520Y0017899D01*
X0138732Y0017899D01*
X0138732Y0013299D01*
X0138732Y0013730D02*
X0138332Y0013730D01*
X0138332Y0015328D02*
X0138732Y0015328D01*
X0138732Y0016927D02*
X0138332Y0016927D01*
X0140464Y0018525D02*
X0146601Y0018525D01*
X0145854Y0016927D02*
X0141493Y0016927D01*
X0143092Y0015328D02*
X0144256Y0015328D01*
X0143932Y0013730D02*
X0143332Y0013730D01*
X0143332Y0012131D02*
X0143932Y0012131D01*
X0144594Y0010533D02*
X0142754Y0010533D01*
X0141155Y0008934D02*
X0146192Y0008934D01*
X0145002Y0020124D02*
X0142062Y0020124D01*
X0143132Y0021722D02*
X0143932Y0021722D01*
X0143932Y0023321D02*
X0143132Y0023321D01*
X0143132Y0024919D02*
X0143932Y0024919D01*
X0145445Y0026518D02*
X0141619Y0026518D01*
X0142434Y0050495D02*
X0144631Y0050495D01*
X0143932Y0052094D02*
X0143132Y0052094D01*
X0143132Y0053692D02*
X0143932Y0053692D01*
X0144219Y0055291D02*
X0142846Y0055291D01*
X0141247Y0056889D02*
X0145817Y0056889D01*
X0148332Y0058488D02*
X0148732Y0058488D01*
X0148732Y0060086D02*
X0148332Y0060086D01*
X0148332Y0061685D02*
X0148732Y0061685D01*
X0153132Y0071276D02*
X0174165Y0071276D01*
X0174165Y0072874D02*
X0153132Y0072874D01*
X0153132Y0074473D02*
X0174165Y0074473D01*
X0174165Y0076072D02*
X0152065Y0076072D01*
X0150467Y0077670D02*
X0174165Y0077670D01*
X0174165Y0079269D02*
X0151207Y0079269D01*
X0152805Y0080867D02*
X0174165Y0080867D01*
X0174165Y0082466D02*
X0153132Y0082466D01*
X0153132Y0084064D02*
X0174165Y0084064D01*
X0174165Y0085663D02*
X0152474Y0085663D01*
X0150876Y0087261D02*
X0174165Y0087261D01*
X0174165Y0088860D02*
X0150798Y0088860D01*
X0152397Y0090458D02*
X0174165Y0090458D01*
X0174165Y0092057D02*
X0153132Y0092057D01*
X0153132Y0093655D02*
X0174165Y0093655D01*
X0174165Y0095254D02*
X0152883Y0095254D01*
X0151285Y0096852D02*
X0174165Y0096852D01*
X0174165Y0140012D02*
X0152233Y0140012D01*
X0153332Y0141610D02*
X0174165Y0141610D01*
M02*
